2019-05-02 14:34:02,360 gpu device = 0
2019-05-02 14:34:02,361 args = Namespace(arch='DARTS', auxiliary=False, auxiliary_weight=0.4, batch_size=128, data='../data/', decay_period=1, drop_path_prob=0, epochs=250, gamma=0.97, gpu=0, grad_clip=5.0, init_channels=48, label_smooth=0.1, layers=14, learning_rate=0.1, momentum=0.9, parallel=False, report_freq=100, save='eval-EXP-20190502-143402', seed=0, weight_decay=3e-05)
2019-05-02 14:34:04,952 param size = 3.960518MB
2019-05-02 14:34:04,990 epoch 0 lr 9.409000e-02
